…
n <- 1000
 
x1 <- runif(n, -100, 100)
x2 <- 0.5 * x1 + rnorm(n, 0, 50)

y  <- 4 + x1 - 3*x2 + rnorm(n, 0, 1)

data <- tibble(
    y = y,
    x1 = x1,
    x2 = x2
)

# data
# # A tibble: 1,000 x 3
#         y     x1      x2
#     <dbl>  <dbl>   <dbl>
#  1 -130.  -67.4   22.4  
#  2 -112.   32.2   49.0  
#  3   80.0  16.5  -20.0  
#  4 -212.  -17.4   65.9  
#  5 -228.  -68.2   54.5  
#  6   67.0  60.3   -0.524
#  7   65.9  -2.55 -21.0  
#  8 -149.  -88.9   21.8  
#  9   91.8  20.0  -22.5  
# 10  -57.6  37.3   32.8  
# # … with 990 more rows
```
…
